…
    ## [1] 183

``` r
69/183 
```

    ## [1] 0.38

``` r
subway_df %>% 
  filter(ada == TRUE) %>% 
  distinct(station_name, line)
```

    ## # A tibble: 84 x 2
    ##    line            station_name                  
    ##    <chr>           <chr>                         
    ##  1 4 Avenue        Atlantic Av-Barclays Ctr      
    ##  2 4 Avenue        DeKalb Av                     
    ##  3 4 Avenue        Pacific St                    
    ##  4 42nd St Shuttle Grand Central                 
    ##  5 6 Avenue        34th St                       
    ##  6 6 Avenue        47-50th Sts Rockefeller Center
    ##  7 6 Avenue        Church Av                     
    ##  8 63rd Street     21st St                       
    ##  9 63rd Street     Lexington Av                  
    ## 10 63rd Street     Roosevelt Island              
    ## # … with 74 more rows

``` r
distinct(subway_df, station_name, line)
```

    ## # A tibble: 465 x 2
    ##    line     station_name            
    ##    <chr>    <chr>                   
    ##  1 4 Avenue 25th St                 
    ##  2 4 Avenue 36th St                 
    ##  3 4 Avenue 45th St                 
    ##  4 4 Avenue 53rd St                 
    ##  5 4 Avenue 59th St                 
    ##  6 4 Avenue 77th St                 
    ##  7 4 Avenue 86th St                 
    ##  8 4 Avenue 95th St                 
    ##  9 4 Avenue 9th St                  
    ## 10 4 Avenue Atlantic Av-Barclays Ctr
    ## # … with 455 more rows
…
``` r
clean_subway_df %>% 
  filter(route_name == "A") %>% 
  distinct(station_name, line)
```

    ## # A tibble: 60 x 2
    ##    line            station_name                 
    ##    <chr>           <chr>                        
    ##  1 42nd St Shuttle Times Square                 
    ##  2 8 Avenue        125th St                     
    ##  3 8 Avenue        145th St                     
    ##  4 8 Avenue        14th St                      
    ##  5 8 Avenue        168th St - Washington Heights
    ##  6 8 Avenue        175th St                     
    ##  7 8 Avenue        181st St                     
    ##  8 8 Avenue        190th St                     
    ##  9 8 Avenue        34th St                      
    ## 10 8 Avenue        42nd St                      
    ## # … with 50 more rows
…
